Machine Learning Model Analysis to Predict Poverty Rates in the United States of America
…
set.seed(2022)

Poverty_split <- initial_split(Poverty,  prop= 0.7)

Poverty_train <- training(Poverty_split)
dim(Poverty_train)

## [1] 48 41

Poverty_train

## # A tibble: 48 x 41
##    Elements    x1980 x1981 x1982 x1983 x1984 x1985 x1986 x1987 x1988 x1989 x1990
##    <chr>       <dbl> <dbl> <dbl> <dbl> <dbl> <dbl> <dbl> <dbl> <dbl> <dbl> <dbl>
##  1 New York    0.138 0.144 0.148 0.16  0.16  0.158 0.132 0.143 0.134 0.126 0.143
##  2 Oklahoma    0.139 0.138 0.154 0.17  0.133 0.16  0.147 0.17  0.173 0.147 0.156
##  3 Married Pa~ 0.077 0.087 0.098 0.101 0.094 0.089 0.08  0.077 0.072 0.073 0.078
##  4 Utah        0.1   0.122 0.145 0.135 0.111 0.109 0.126 0.102 0.098 0.082 0.082
##  5 White, non~ 0.091 0.099 0.106 0.108 0.1   0.097 0.094 0.087 0.084 0.083 0.088
##  6 Oregon      0.115 0.123 0.139 0.161 0.128 0.119 0.123 0.142 0.104 0.112 0.092
##  7 Single No ~ 0.086 0.114 0.115 0.119 0.106 0.1   0.092 0.098 0.089 0.084 0.085
##  8 Georgia     0.139 0.163 0.196 0.188 0.169 0.177 0.146 0.146 0.14  0.15  0.158
##  9 New Mexico  0.206 0.186 0.224 0.245 0.195 0.185 0.213 0.194 0.23  0.195 0.209
## 10 Wisconsin   0.085 0.081 0.095 0.107 0.155 0.116 0.107 0.09  0.078 0.084 0.093
## # ... with 38 more rows, and 29 more variables: x1991 <dbl>, x1992 <dbl>,
## #   x1993 <dbl>, x1994 <dbl>, x1995 <dbl>, x1996 <dbl>, x1997 <dbl>,
## #   x1998 <dbl>, x1999 <dbl>, x2000 <dbl>, x2001 <dbl>, x2002 <dbl>,
## #   x2003 <dbl>, x2004 <dbl>, x2005 <dbl>, x2006 <dbl>, x2007 <dbl>,
## #   x2008 <dbl>, x2009 <dbl>, x2010 <dbl>, x2011 <dbl>, x2012 <dbl>,
## #   x2013 <dbl>, x2014 <dbl>, x2015 <dbl>, x2016 <dbl>, x2017 <dbl>,
## #   x2018 <dbl>, x2019 <dbl>

Poverty_test <- testing(Poverty_split)
dim(Poverty_test)

## [1] 21 41

Poverty_test

## # A tibble: 21 x 41
##    Elements    x1980 x1981 x1982 x1983 x1984 x1985 x1986 x1987 x1988 x1989 x1990
##    <chr>       <dbl> <dbl> <dbl> <dbl> <dbl> <dbl> <dbl> <dbl> <dbl> <dbl> <dbl>
##  1 Single Mot~ 0.429 0.443 0.478 0.471 0.457 0.454 0.46  0.455 0.447 0.428 0.445
##  2 West        0.114 0.127 0.141 0.147 0.131 0.13  0.132 0.126 0.127 0.125 0.13 
##  3 South       0.165 0.174 0.181 0.172 0.162 0.16  0.161 0.161 0.161 0.154 0.158
##  4 California  0.11  0.133 0.141 0.149 0.132 0.136 0.127 0.123 0.132 0.129 0.139
##  5 Connecticut 0.083 0.082 0.081 0.088 0.069 0.076 0.06  0.066 0.04  0.029 0.06 
##  6 Delaware    0.118 0.123 0.115 0.086 0.103 0.114 0.124 0.066 0.086 0.1   0.069
##  7 Hawaii      0.085 0.113 0.132 0.129 0.093 0.107 0.107 0.088 0.111 0.113 0.11 
##  8 Indiana     0.118 0.126 0.126 0.161 0.129 0.12  0.127 0.111 0.101 0.137 0.13 
##  9 Kansas      0.094 0.117 0.104 0.136 0.107 0.138 0.111 0.092 0.081 0.108 0.103
## 10 Kentucky    0.193 0.193 0.162 0.179 0.191 0.194 0.177 0.173 0.176 0.161 0.173
## # ... with 11 more rows, and 29 more variables: x1991 <dbl>, x1992 <dbl>,
## #   x1993 <dbl>, x1994 <dbl>, x1995 <dbl>, x1996 <dbl>, x1997 <dbl>,
## #   x1998 <dbl>, x1999 <dbl>, x2000 <dbl>, x2001 <dbl>, x2002 <dbl>,
## #   x2003 <dbl>, x2004 <dbl>, x2005 <dbl>, x2006 <dbl>, x2007 <dbl>,
## #   x2008 <dbl>, x2009 <dbl>, x2010 <dbl>, x2011 <dbl>, x2012 <dbl>,
## #   x2013 <dbl>, x2014 <dbl>, x2015 <dbl>, x2016 <dbl>, x2017 <dbl>,
## #   x2018 <dbl>, x2019 <dbl>
…
lm_Poverty_recipe <- recipe(x2019 ~ x1980 + x1981 + x1982 + x1983 + x1984
                              + x1985 + x1986 + x1987 + x1988 + x1989 + x1990
                              + x1991 + x1992 + x1993 + x1994 + x1995 + x1996
                              + x1997 + x1998 + x1999 + x2000 + x2001 + x2002
                              + x2003 + x2004 + x2005 + x2006 + x2007 + x2008
                              + x2009 + x2010 + x2011 + x2012 + x2013 + x2014
                              + x2015 + x2016 + x2017 + x2018,
                            data= Poverty_train) %>%
  step_normalize(all_predictors()) %>%
  step_pca(all_predictors())

estimate_pca <- prep(lm_Poverty_recipe, training= Poverty_train)
tidy(estimate_pca, number= 2)

## # A tibble: 1,521 x 4
##    terms value component id       
##    <chr> <dbl> <chr>     <chr>    
##  1 x1980 0.156 PC1       pca_5WhVq
##  2 x1981 0.150 PC1       pca_5WhVq
##  3 x1982 0.159 PC1       pca_5WhVq
##  4 x1983 0.161 PC1       pca_5WhVq
##  5 x1984 0.159 PC1       pca_5WhVq
##  6 x1985 0.155 PC1       pca_5WhVq
##  7 x1986 0.153 PC1       pca_5WhVq
##  8 x1987 0.158 PC1       pca_5WhVq
##  9 x1988 0.161 PC1       pca_5WhVq
## 10 x1989 0.163 PC1       pca_5WhVq
## # ... with 1,511 more rows
…
poly_Poverty_recipe <- recipe(x2019 ~ x1999, data= Poverty_train) %>%
  step_normalize(all_predictors()) %>%
  step_poly(x1999, degree= 5) %>%
  step_pca(all_predictors())

estimate_pca <- prep(poly_Poverty_recipe, training= Poverty_train)
tidy(estimate_pca, number= 3)

## # A tibble: 25 x 4
##    terms          value component id       
##    <chr>          <dbl> <chr>     <chr>    
##  1 x1999_poly_1  0      PC1       pca_2Jspy
##  2 x1999_poly_2 -0.398  PC1       pca_2Jspy
##  3 x1999_poly_3 -0.109  PC1       pca_2Jspy
##  4 x1999_poly_4  0.0572 PC1       pca_2Jspy
##  5 x1999_poly_5  0.909  PC1       pca_2Jspy
##  6 x1999_poly_1 -1      PC2       pca_2Jspy
##  7 x1999_poly_2  0      PC2       pca_2Jspy
##  8 x1999_poly_3  0      PC2       pca_2Jspy
##  9 x1999_poly_4  0      PC2       pca_2Jspy
## 10 x1999_poly_5  0      PC2       pca_2Jspy
## # ... with 15 more rows
…
poly_Poverty_fit <- fit(poly_Poverty_wf, data= Poverty)  

Lets take a look at the predictions of each x2019
element and the bounds.

Range1999 <- Poverty[,21]

reg_lines <- bind_cols(augment(poly_Poverty_fit, new_data= Range1999),
                       predict(poly_Poverty_fit, new_data= Range1999, type= "conf_int"))
reg_lines

## # A tibble: 69 x 4
##     x1999  .pred .pred_lower .pred_upper
##     <dbl>  <dbl>       <dbl>       <dbl>
##  1 0.119  0.101      0.0944       0.108 
##  2 0.171  0.147      0.133        0.161 
##  3 0.101  0.0908     0.0843       0.0974
##  4 0.0970 0.0889     0.0823       0.0955
##  5 0.035  0.0336    -0.00398      0.0712
##  6 0.064  0.0725     0.0606       0.0844
##  7 0.092  0.0866     0.0798       0.0935
##  8 0.163  0.139      0.127        0.151 
##  9 0.357  0.307      0.268        0.347 
## 10 0.098  0.0894     0.0828       0.0959
## # ... with 59 more rows
…
spline_Poverty_fit <- fit(spline_Poverty_wf, data= Poverty)

Lets see the spline predicted and the bounds for the confidence
interval.

Range1999 <- Poverty[,21]

reg_lines <- bind_cols(augment(spline_Poverty_fit, new_data= Range1999),
                       predict(spline_Poverty_fit, new_data= Range1999, type= "conf_int"))
reg_lines

## # A tibble: 69 x 4
##     x1999  .pred .pred_lower .pred_upper
##     <dbl>  <dbl>       <dbl>       <dbl>
##  1 0.119  0.104       0.0984      0.110 
##  2 0.171  0.138       0.129       0.148 
##  3 0.101  0.0926      0.0868      0.0984
##  4 0.0970 0.0900      0.0842      0.0958
##  5 0.035  0.0468      0.0224      0.0713
##  6 0.064  0.0677      0.0571      0.0783
##  7 0.092  0.0867      0.0807      0.0926
##  8 0.163  0.133       0.125       0.141 
##  9 0.357  0.306       0.266       0.346 
## 10 0.098  0.0906      0.0848      0.0964
## # ... with 59 more rows
…
We can see that Random Forest predicted each observation more
accurately. Most points form a straight line!

Now, lets choose random forest to predict the outcome on the testing
data.

predict_Poverty <- predict(Class_forest_fit, new_data= Poverty_test)

predict_Compare <- predict_Poverty %>%
  bind_cols(Poverty_test[, c("Elements", "x2019")])

predict_Compare

## # A tibble: 21 x 3
##     .pred Elements       x2019
##     <dbl> <chr>          <dbl>
##  1 0.165  Single Mothers 0.307
##  2 0.101  West           0.095
##  3 0.114  South          0.12 
##  4 0.109  California     0.101
##  5 0.0758 Connecticut    0.083
##  6 0.0819 Delaware       0.065
##  7 0.0844 Hawaii         0.084
##  8 0.0959 Indiana        0.101
##  9 0.0895 Kansas         0.095
## 10 0.123  Kentucky       0.136
## # ... with 11 more rows
…
